<?xml version="1.0" standalone="no"?>
<!DOCTYPE svg PUBLIC "-//W3C//DTD SVG 20010904//EN"
 "http://www.w3.org/TR/2001/REC-SVG-20010904/DTD/svg10.dtd">
<svg version="1.0" xmlns="http://www.w3.org/2000/svg"
 width="200.000000pt" height="200.000000pt" viewBox="0 0 200.000000 200.000000"
 preserveAspectRatio="xMidYMid meet">
<metadata>
Created by potrace 1.16, written by Peter Selinger 2001-2019
</metadata>
<g transform="translate(0.000000,200.000000) scale(0.100000,-0.100000)"
fill="#000000" stroke="none">
<path d="M1059 1237 c-30 -29 -83 -77 -117 -107 l-62 -55 0 -57 c0 -32 3 -58
8 -58 4 0 43 32 87 72 44 39 74 65 68 58 -15 -16 -18 -134 -4 -128 23 8 224
196 232 216 10 27 12 112 2 112 -3 0 -47 -37 -97 -82 -50 -45 -83 -73 -73 -61
14 16 17 34 15 81 l-3 60 -56 -51z"/>
</g>
</svg>
